PWD /Users/ryanyz10/multireviewsheet
INPUT /usr/local/texlive/2015/texmf.cnf
INPUT /usr/local/texlive/2015/texmf-dist/web2c/texmf.cnf
INPUT /usr/local/texlive/2015/texmf-var/web2c/pdftex/pdflatex.fmt
INPUT diffeq.tex
OUTPUT diffeq.log
INPUT /usr/local/texlive/2015/texmf-dist/tex/latex/base/article.cls
INPUT /usr/local/texlive/2015/texmf-dist/tex/latex/base/article.cls
INPUT /usr/local/texlive/2015/texmf-dist/tex/latex/base/size10.clo
INPUT /usr/local/texlive/2015/texmf-dist/tex/latex/base/size10.clo
INPUT /usr/local/texlive/2015/texmf-dist/tex/latex/amsmath/amsmath.sty
INPUT /usr/local/texlive/2015/texmf-dist/tex/latex/amsmath/amsmath.sty
INPUT /usr/local/texlive/2015/texmf-dist/tex/latex/amsmath/amstext.sty
INPUT /usr/local/texlive/2015/texmf-dist/tex/latex/amsmath/amstext.sty
INPUT /usr/local/texlive/2015/texmf-dist/tex/latex/amsmath/amsgen.sty
INPUT /usr/local/texlive/2015/texmf-dist/tex/latex/amsmath/amsgen.sty
INPUT /usr/local/texlive/2015/texmf-dist/tex/latex/amsmath/amsbsy.sty
INPUT /usr/local/texlive/2015/texmf-dist/tex/latex/amsmath/amsbsy.sty
INPUT /usr/local/texlive/2015/texmf-dist/tex/latex/amsmath/amsopn.sty
INPUT /usr/local/texlive/2015/texmf-dist/tex/latex/amsmath/amsopn.sty
INPUT /usr/local/texlive/2015/texmf-dist/tex/latex/psnfss/charter.sty
INPUT /usr/local/texlive/2015/texmf-dist/tex/latex/psnfss/charter.sty
INPUT /usr/local/texlive/2015/texmf-dist/tex/latex/parskip/parskip.sty
INPUT /usr/local/texlive/2015/texmf-dist/tex/latex/parskip/parskip.sty
INPUT /usr/local/texlive/2015/texmf-dist/tex/latex/microtype/microtype.sty
INPUT /usr/local/texlive/2015/texmf-dist/tex/latex/microtype/microtype.sty
INPUT /usr/local/texlive/2015/texmf-dist/tex/latex/graphics/keyval.sty
INPUT /usr/local/texlive/2015/texmf-dist/tex/latex/graphics/keyval.sty
INPUT /usr/local/texlive/2015/texmf-dist/tex/latex/microtype/microtype-pdftex.def
INPUT /usr/local/texlive/2015/texmf-dist/tex/latex/microtype/microtype-pdftex.def
INPUT /usr/local/texlive/2015/texmf-dist/tex/latex/microtype/microtype.cfg
INPUT /usr/local/texlive/2015/texmf-dist/tex/latex/microtype/microtype.cfg
INPUT /usr/local/texlive/2015/texmf-dist/tex/latex/microtype/microtype.cfg
INPUT /usr/local/texlive/2015/texmf-dist/tex/latex/geometry/geometry.sty
INPUT /usr/local/texlive/2015/texmf-dist/tex/latex/geometry/geometry.sty
INPUT /usr/local/texlive/2015/texmf-dist/tex/generic/oberdiek/ifpdf.sty
INPUT /usr/local/texlive/2015/texmf-dist/tex/generic/oberdiek/ifpdf.sty
INPUT /usr/local/texlive/2015/texmf-dist/tex/generic/oberdiek/ifvtex.sty
INPUT /usr/local/texlive/2015/texmf-dist/tex/generic/oberdiek/ifvtex.sty
INPUT /usr/local/texlive/2015/texmf-dist/tex/generic/ifxetex/ifxetex.sty
INPUT /usr/local/texlive/2015/texmf-dist/tex/generic/ifxetex/ifxetex.sty
INPUT /usr/local/texlive/2015/texmf-dist/tex/latex/graphics/graphicx.sty
INPUT /usr/local/texlive/2015/texmf-dist/tex/latex/graphics/graphicx.sty
INPUT /usr/local/texlive/2015/texmf-dist/tex/latex/graphics/graphics.sty
INPUT /usr/local/texlive/2015/texmf-dist/tex/latex/graphics/graphics.sty
INPUT /usr/local/texlive/2015/texmf-dist/tex/latex/graphics/trig.sty
INPUT /usr/local/texlive/2015/texmf-dist/tex/latex/graphics/trig.sty
INPUT /usr/local/texlive/2015/texmf-dist/tex/latex/latexconfig/graphics.cfg
INPUT /usr/local/texlive/2015/texmf-dist/tex/latex/latexconfig/graphics.cfg
INPUT /usr/local/texlive/2015/texmf-dist/tex/latex/pdftex-def/pdftex.def
INPUT /usr/local/texlive/2015/texmf-dist/tex/latex/pdftex-def/pdftex.def
INPUT /usr/local/texlive/2015/texmf-dist/tex/generic/oberdiek/infwarerr.sty
INPUT /usr/local/texlive/2015/texmf-dist/tex/generic/oberdiek/infwarerr.sty
INPUT /usr/local/texlive/2015/texmf-dist/tex/generic/oberdiek/ltxcmds.sty
INPUT /usr/local/texlive/2015/texmf-dist/tex/generic/oberdiek/ltxcmds.sty
INPUT /usr/local/texlive/2015/texmf-dist/tex/latex/placeins/placeins.sty
INPUT /usr/local/texlive/2015/texmf-dist/tex/latex/placeins/placeins.sty
INPUT diffeq.aux
INPUT diffeq.aux
OUTPUT diffeq.aux
INPUT /usr/local/texlive/2015/texmf-dist/tex/latex/psnfss/ot1bch.fd
INPUT /usr/local/texlive/2015/texmf-dist/tex/latex/psnfss/ot1bch.fd
INPUT /usr/local/texlive/2015/texmf-dist/fonts/map/fontname/texfonts.map
INPUT /usr/local/texlive/2015/texmf-dist/fonts/tfm/bitstrea/charter/bchr7t.tfm
INPUT /usr/local/texlive/2015/texmf-dist/tex/latex/microtype/mt-bch.cfg
INPUT /usr/local/texlive/2015/texmf-dist/tex/latex/microtype/mt-bch.cfg
INPUT /usr/local/texlive/2015/texmf-dist/tex/context/base/supp-pdf.mkii
INPUT /usr/local/texlive/2015/texmf-dist/tex/context/base/supp-pdf.mkii
INPUT /usr/local/texlive/2015/texmf-dist/tex/generic/oberdiek/pdftexcmds.sty
INPUT /usr/local/texlive/2015/texmf-dist/tex/generic/oberdiek/pdftexcmds.sty
INPUT /usr/local/texlive/2015/texmf-dist/tex/generic/oberdiek/ifluatex.sty
INPUT /usr/local/texlive/2015/texmf-dist/tex/generic/oberdiek/ifluatex.sty
INPUT /usr/local/texlive/2015/texmf-dist/tex/latex/oberdiek/epstopdf-base.sty
INPUT /usr/local/texlive/2015/texmf-dist/tex/latex/oberdiek/epstopdf-base.sty
INPUT /usr/local/texlive/2015/texmf-dist/tex/latex/oberdiek/grfext.sty
INPUT /usr/local/texlive/2015/texmf-dist/tex/latex/oberdiek/grfext.sty
INPUT /usr/local/texlive/2015/texmf-dist/tex/generic/oberdiek/kvdefinekeys.sty
INPUT /usr/local/texlive/2015/texmf-dist/tex/generic/oberdiek/kvdefinekeys.sty
INPUT /usr/local/texlive/2015/texmf-dist/tex/latex/oberdiek/kvoptions.sty
INPUT /usr/local/texlive/2015/texmf-dist/tex/latex/oberdiek/kvoptions.sty
INPUT /usr/local/texlive/2015/texmf-dist/tex/generic/oberdiek/kvsetkeys.sty
INPUT /usr/local/texlive/2015/texmf-dist/tex/generic/oberdiek/kvsetkeys.sty
INPUT /usr/local/texlive/2015/texmf-dist/tex/generic/oberdiek/etexcmds.sty
INPUT /usr/local/texlive/2015/texmf-dist/tex/generic/oberdiek/etexcmds.sty
INPUT /usr/local/texlive/2015/texmf-dist/tex/latex/latexconfig/epstopdf-sys.cfg
INPUT /usr/local/texlive/2015/texmf-dist/tex/latex/latexconfig/epstopdf-sys.cfg
INPUT /usr/local/texlive/2015/texmf-dist/fonts/tfm/bitstrea/charter/bchr7t.tfm
INPUT /usr/local/texlive/2015/texmf-dist/fonts/tfm/bitstrea/charter/bchr7t.tfm
INPUT /usr/local/texlive/2015/texmf-dist/fonts/tfm/public/cm/cmr12.tfm
INPUT /usr/local/texlive/2015/texmf-dist/tex/latex/microtype/mt-cmr.cfg
INPUT /usr/local/texlive/2015/texmf-dist/tex/latex/microtype/mt-cmr.cfg
INPUT /usr/local/texlive/2015/texmf-dist/fonts/tfm/public/cm/cmr8.tfm
INPUT /usr/local/texlive/2015/texmf-dist/fonts/tfm/public/cm/cmr6.tfm
INPUT /usr/local/texlive/2015/texmf-dist/fonts/tfm/public/cm/cmmi12.tfm
INPUT /usr/local/texlive/2015/texmf-dist/fonts/tfm/public/cm/cmmi8.tfm
INPUT /usr/local/texlive/2015/texmf-dist/fonts/tfm/public/cm/cmmi6.tfm
INPUT /usr/local/texlive/2015/texmf-dist/fonts/tfm/public/cm/cmsy10.tfm
INPUT /usr/local/texlive/2015/texmf-dist/fonts/tfm/public/cm/cmsy8.tfm
INPUT /usr/local/texlive/2015/texmf-dist/fonts/tfm/public/cm/cmsy6.tfm
INPUT /usr/local/texlive/2015/texmf-dist/fonts/tfm/public/cm/cmex10.tfm
INPUT /usr/local/texlive/2015/texmf-dist/fonts/tfm/public/amsfonts/cmextra/cmex8.tfm
INPUT /usr/local/texlive/2015/texmf-dist/fonts/tfm/public/amsfonts/cmextra/cmex7.tfm
OUTPUT diffeq.pdf
INPUT /usr/local/texlive/2015/texmf-dist/fonts/vf/bitstrea/charter/bchr7t.vf
INPUT /usr/local/texlive/2015/texmf-dist/fonts/tfm/bitstrea/charter/bchr8r.tfm
INPUT /usr/local/texlive/2015/texmf-var/fonts/map/pdftex/updmap/pdftex.map
INPUT /usr/local/texlive/2015/texmf-dist/fonts/vf/bitstrea/charter/bchr7t.vf
INPUT /usr/local/texlive/2015/texmf-dist/fonts/tfm/bitstrea/charter/bchr8r.tfm
INPUT /usr/local/texlive/2015/texmf-dist/fonts/vf/bitstrea/charter/bchr7t.vf
INPUT /usr/local/texlive/2015/texmf-dist/fonts/tfm/bitstrea/charter/bchr8r.tfm
INPUT /usr/local/texlive/2015/texmf-dist/fonts/tfm/bitstrea/charter/bchr7t.tfm
INPUT /usr/local/texlive/2015/texmf-dist/fonts/tfm/bitstrea/charter/bchb7t.tfm
INPUT /usr/local/texlive/2015/texmf-dist/fonts/tfm/bitstrea/charter/bchb7t.tfm
INPUT /usr/local/texlive/2015/texmf-dist/fonts/tfm/public/amsfonts/cmextra/cmex7.tfm
INPUT /usr/local/texlive/2015/texmf-dist/fonts/tfm/public/amsfonts/cmextra/cmex7.tfm
INPUT /usr/local/texlive/2015/texmf-dist/fonts/tfm/bitstrea/charter/bchb7t.tfm
INPUT /usr/local/texlive/2015/texmf-dist/fonts/vf/bitstrea/charter/bchb7t.vf
INPUT /usr/local/texlive/2015/texmf-dist/fonts/tfm/bitstrea/charter/bchb8r.tfm
INPUT /usr/local/texlive/2015/texmf-dist/fonts/vf/bitstrea/charter/bchb7t.vf
INPUT /usr/local/texlive/2015/texmf-dist/fonts/tfm/bitstrea/charter/bchb8r.tfm
INPUT /usr/local/texlive/2015/texmf-dist/fonts/vf/bitstrea/charter/bchb7t.vf
INPUT /usr/local/texlive/2015/texmf-dist/fonts/tfm/bitstrea/charter/bchb8r.tfm
INPUT diffeq.aux
INPUT /usr/local/texlive/2015/texmf-dist/fonts/enc/dvips/base/8r.enc
INPUT /usr/local/texlive/2015/texmf-dist/fonts/type1/bitstrea/charter/bchb8a.pfb
INPUT /usr/local/texlive/2015/texmf-dist/fonts/type1/bitstrea/charter/bchr8a.pfb
INPUT /usr/local/texlive/2015/texmf-dist/fonts/type1/public/amsfonts/cm/cmex10.pfb
INPUT /usr/local/texlive/2015/texmf-dist/fonts/type1/public/amsfonts/cmextra/cmex7.pfb
INPUT /usr/local/texlive/2015/texmf-dist/fonts/type1/public/amsfonts/cm/cmmi10.pfb
INPUT /usr/local/texlive/2015/texmf-dist/fonts/type1/public/amsfonts/cm/cmmi7.pfb
INPUT /usr/local/texlive/2015/texmf-dist/fonts/type1/public/amsfonts/cm/cmr10.pfb
INPUT /usr/local/texlive/2015/texmf-dist/fonts/type1/public/amsfonts/cm/cmr5.pfb
INPUT /usr/local/texlive/2015/texmf-dist/fonts/type1/public/amsfonts/cm/cmr7.pfb
INPUT /usr/local/texlive/2015/texmf-dist/fonts/type1/public/amsfonts/cm/cmsy10.pfb
INPUT /usr/local/texlive/2015/texmf-dist/fonts/type1/public/amsfonts/cm/cmsy7.pfb
